{
	"info": {
		"_postman_id": "b5da5b0c-20fd-4cb6-bfeb-edfe795da8f2",
		"name": "WithDoctrine",
		"schema": "https://schema.getpostman.com/json/collection/v2.1.0/collection.json"
	},
	"item": [
		{
			"name": "Create Invitation",
			"request": {
				"method": "POST",
				"header": [
					{
						"key": "Content-Type",
						"name": "Content-Type",
						"value": "application/json",
						"type": "text"
					}
				],
				"body": {
					"mode": "raw",
					"raw": "{\n\t\"name\": \"gok\",\n\t\"address\": \"somewhere in world\"\n}"
				},
				"url": {
					"raw": "http://localhost/invitation/create",
					"protocol": "http",
					"host": [
						"localhost"
					],
					"path": [
						"invitation",
						"create"
					]
				}
			},
			"response": []
		},
		{
			"name": "Get Invitation",
			"request": {
				"method": "GET",
				"header": [
					{
						"key": "Content-Type",
						"value": "application/json",
						"type": "text"
					}
				],
				"body": {
					"mode": "raw",
					"raw": ""
				},
				"url": {
					"raw": "http://localhost/invitation/getall",
					"protocol": "http",
					"host": [
						"localhost"
					],
					"path": [
						"invitation",
						"getall"
					]
				}
			},
			"response": []
		}
	]
}